M48
; DRILL file {KiCad (5.1.0)-1} date 07/03/19 3:51:09 PM
; FORMAT={-:-/ absolute / metric / decimal}
; #@! TF.CreationDate,2019-07-03T15:51:09+05:30
; #@! TF.GenerationSoftware,Kicad,Pcbnew,(5.1.0)-1
FMAT,2
METRIC
T1C0.700
T2C0.762
T3C0.800
T4C0.900
T5C1.000
T6C1.200
T7C1.300
T8C3.500
%
G90
G05
T1
X-30.0Y54.6
X-30.0Y52.2
X-30.0Y49.55
X-30.0Y47.15
X-30.0Y44.75
X-30.0Y42.35
X-27.2Y54.6
X-27.2Y52.2
X-27.2Y49.55
X-27.2Y47.15
X-27.2Y44.75
X-27.2Y42.35
X-24.4Y54.55
X-24.4Y52.15
X-24.4Y49.5
X-24.4Y47.1
X-24.4Y44.7
X-24.4Y42.3
X-21.55Y54.5
X-21.55Y52.1
X-21.55Y49.45
X-21.55Y47.05
X-21.55Y44.65
X-21.55Y42.25
X-18.85Y54.55
X-18.85Y52.15
X-18.85Y49.5
X-18.85Y47.1
X-18.85Y44.7
X-18.85Y42.3
X-16.85Y37.43
X-16.403Y31.342
X-16.1Y54.55
X-16.1Y52.15
X-16.1Y49.5
X-16.1Y47.1
X-16.1Y44.7
X-16.1Y42.3
X-7.7Y44.15
X-4.1Y51.25
X-1.4Y76.1
X-1.4Y73.7
X-1.4Y71.05
X-1.4Y68.65
X-1.4Y66.25
X-1.35Y63.9
X1.15Y76.1
X1.15Y73.7
X1.15Y71.05
X1.15Y68.65
X1.15Y66.25
X1.2Y63.9
X3.95Y76.1
X3.95Y73.7
X3.95Y71.05
X3.95Y68.65
X3.95Y66.25
X4.0Y63.9
X6.8Y76.05
X6.8Y73.65
X6.8Y71.0
X6.8Y68.6
X6.8Y66.2
X6.85Y63.85
X9.5Y76.1
X9.5Y73.7
X9.5Y71.05
X9.5Y68.65
X9.5Y66.25
X9.55Y63.9
X10.05Y35.2
X12.25Y76.1
X12.25Y73.7
X12.25Y71.05
X12.25Y68.65
X12.25Y66.25
X12.3Y63.9
X15.0Y62.15
X15.35Y40.5
X28.15Y48.0
X29.85Y50.435
X36.7Y57.35
T2
X8.96Y44.33
X8.96Y27.18
X48.46Y44.33
X48.46Y27.18
T3
X10.6Y56.3
X10.6Y53.76
X20.2Y79.2
X20.2Y76.7
X42.1Y59.7
X44.64Y59.7
X16.65Y58.6
X19.15Y58.6
X-5.24Y59.1
X-2.7Y59.1
X-41.83Y51.8
X-39.29Y51.8
X-36.75Y51.8
X-41.35Y47.84
X-41.35Y45.3
X8.75Y23.1
X11.29Y23.1
X16.9Y48.7
X19.4Y48.7
X20.5Y73.54
X20.5Y71.0
X23.3Y79.2
X23.3Y76.7
X22.95Y55.3
X25.45Y55.3
X5.45Y59.1
X7.99Y59.1
X-37.4Y59.04
X-37.4Y56.5
X13.71Y23.1
X16.25Y23.1
X36.8Y59.7
X39.34Y59.7
X23.05Y58.7
X25.55Y58.7
X26.4Y79.2
X26.4Y76.7
X0.15Y59.1
X2.69Y59.1
X-37.25Y47.79
X-37.25Y45.25
X-42.08Y63.0
X-39.54Y63.0
X-37.0Y63.0
X-41.6Y59.04
X-41.6Y56.5
T4
X-50.399Y29.11
X-46.0Y31.65
X-49.25Y25.9
X-47.98Y23.7
X11.95Y50.64
X11.95Y48.1
T5
X16.61Y55.3
X19.15Y55.3
X-49.9Y39.14
X-49.9Y36.6
X-44.75Y38.35
X-39.75Y38.35
X25.9Y23.2
X28.44Y23.2
X30.98Y23.2
X-33.66Y56.6
X-33.66Y54.06
X-33.66Y51.52
X-33.66Y48.98
X-33.66Y46.44
X-33.66Y43.9
X-33.66Y41.36
X-33.66Y38.82
X-10.8Y56.6
X-10.8Y54.06
X-10.8Y51.52
X-10.8Y48.98
X-10.8Y46.44
X-10.8Y43.9
X-10.8Y41.36
X-10.8Y38.82
X22.96Y48.8
X25.5Y48.8
X-5.14Y76.14
X-5.14Y73.6
X-5.14Y71.06
X-5.14Y68.52
X-5.14Y65.98
X-5.14Y63.44
X16.56Y78.68
X16.56Y76.14
X16.56Y73.6
X16.56Y71.06
X16.56Y68.52
X16.56Y65.98
X34.3Y70.1
X34.3Y65.1
X-27.08Y77.34
X-27.08Y67.18
X-24.54Y77.34
X-24.54Y67.18
X-22.0Y77.34
X-22.0Y67.18
X-19.46Y77.34
X-19.46Y67.18
X-16.92Y67.18
X-14.38Y67.18
X-48.965Y43.393
X-48.307Y45.847
X-47.65Y48.3
X-46.993Y50.753
X-46.335Y53.207
X25.2Y73.4
X25.2Y63.4
X-45.05Y19.15
X-39.35Y9.277
T6
X11.45Y18.05
X11.45Y15.51
X11.45Y12.97
T7
X39.45Y18.2
X44.224Y16.463
X-41.4Y25.7
X-37.001Y28.24
T8
X27.25Y15.51
T0
M30
