G04 #@! TF.GenerationSoftware,KiCad,Pcbnew,(5.1.0)-1*
G04 #@! TF.CreationDate,2022-05-24T15:59:38+05:30*
G04 #@! TF.ProjectId,V1,56312e6b-6963-4616-945f-706362585858,rev?*
G04 #@! TF.SameCoordinates,PX43a9c70PY46aad20*
G04 #@! TF.FileFunction,Drawing*
%FSLAX46Y46*%
G04 Gerber Fmt 4.6, Leading zero omitted, Abs format (unit mm)*
G04 Created by KiCad (PCBNEW (5.1.0)-1) date 2022-05-24 15:59:38*
%MOMM*%
%LPD*%
G04 APERTURE LIST*
%ADD10C,0.150000*%
%ADD11C,0.120000*%
%ADD12C,0.100000*%
%ADD13C,0.010000*%
G04 APERTURE END LIST*
D10*
X70952380Y-71472379D02*
X70380952Y-71472379D01*
X70666666Y-71472379D02*
X70666666Y-70472379D01*
X70571428Y-70615237D01*
X70476190Y-70710475D01*
X70380952Y-70758094D01*
X71857142Y-70472379D02*
X71380952Y-70472379D01*
X71333333Y-70948570D01*
X71380952Y-70900951D01*
X71476190Y-70853332D01*
X71714285Y-70853332D01*
X71809523Y-70900951D01*
X71857142Y-70948570D01*
X71904761Y-71043808D01*
X71904761Y-71281903D01*
X71857142Y-71377141D01*
X71809523Y-71424760D01*
X71714285Y-71472379D01*
X71476190Y-71472379D01*
X71380952Y-71424760D01*
X71333333Y-71377141D01*
X72523809Y-70472379D02*
X72619047Y-70472379D01*
X72714285Y-70519999D01*
X72761904Y-70567618D01*
X72809523Y-70662856D01*
X72857142Y-70853332D01*
X72857142Y-71091427D01*
X72809523Y-71281903D01*
X72761904Y-71377141D01*
X72714285Y-71424760D01*
X72619047Y-71472379D01*
X72523809Y-71472379D01*
X72428571Y-71424760D01*
X72380952Y-71377141D01*
X72333333Y-71281903D01*
X72285714Y-71091427D01*
X72285714Y-70853332D01*
X72333333Y-70662856D01*
X72380952Y-70567618D01*
X72428571Y-70519999D01*
X72523809Y-70472379D01*
X73285714Y-71377141D02*
X73333333Y-71424760D01*
X73285714Y-71472379D01*
X73238095Y-71424760D01*
X73285714Y-71377141D01*
X73285714Y-71472379D01*
X73952380Y-70472379D02*
X74047619Y-70472379D01*
X74142857Y-70519999D01*
X74190476Y-70567618D01*
X74238095Y-70662856D01*
X74285714Y-70853332D01*
X74285714Y-71091427D01*
X74238095Y-71281903D01*
X74190476Y-71377141D01*
X74142857Y-71424760D01*
X74047619Y-71472379D01*
X73952380Y-71472379D01*
X73857142Y-71424760D01*
X73809523Y-71377141D01*
X73761904Y-71281903D01*
X73714285Y-71091427D01*
X73714285Y-70853332D01*
X73761904Y-70662856D01*
X73809523Y-70567618D01*
X73857142Y-70519999D01*
X73952380Y-70472379D01*
X74904761Y-70472379D02*
X75000000Y-70472379D01*
X75095238Y-70519999D01*
X75142857Y-70567618D01*
X75190476Y-70662856D01*
X75238095Y-70853332D01*
X75238095Y-71091427D01*
X75190476Y-71281903D01*
X75142857Y-71377141D01*
X75095238Y-71424760D01*
X75000000Y-71472379D01*
X74904761Y-71472379D01*
X74809523Y-71424760D01*
X74761904Y-71377141D01*
X74714285Y-71281903D01*
X74666666Y-71091427D01*
X74666666Y-70853332D01*
X74714285Y-70662856D01*
X74761904Y-70567618D01*
X74809523Y-70519999D01*
X74904761Y-70472379D01*
X75857142Y-70472379D02*
X75952380Y-70472379D01*
X76047619Y-70519999D01*
X76095238Y-70567618D01*
X76142857Y-70662856D01*
X76190476Y-70853332D01*
X76190476Y-71091427D01*
X76142857Y-71281903D01*
X76095238Y-71377141D01*
X76047619Y-71424760D01*
X75952380Y-71472379D01*
X75857142Y-71472379D01*
X75761904Y-71424760D01*
X75714285Y-71377141D01*
X75666666Y-71281903D01*
X75619047Y-71091427D01*
X75619047Y-70853332D01*
X75666666Y-70662856D01*
X75714285Y-70567618D01*
X75761904Y-70519999D01*
X75857142Y-70472379D01*
X77380952Y-71472379D02*
X77380952Y-70805713D01*
X77380952Y-70900951D02*
X77428571Y-70853332D01*
X77523809Y-70805713D01*
X77666666Y-70805713D01*
X77761904Y-70853332D01*
X77809523Y-70948570D01*
X77809523Y-71472379D01*
X77809523Y-70948570D02*
X77857142Y-70853332D01*
X77952380Y-70805713D01*
X78095238Y-70805713D01*
X78190476Y-70853332D01*
X78238095Y-70948570D01*
X78238095Y-71472379D01*
X78714285Y-71472379D02*
X78714285Y-70805713D01*
X78714285Y-70900951D02*
X78761904Y-70853332D01*
X78857142Y-70805713D01*
X79000000Y-70805713D01*
X79095238Y-70853332D01*
X79142857Y-70948570D01*
X79142857Y-71472379D01*
X79142857Y-70948570D02*
X79190476Y-70853332D01*
X79285714Y-70805713D01*
X79428571Y-70805713D01*
X79523809Y-70853332D01*
X79571428Y-70948570D01*
X79571428Y-71472379D01*
D11*
X0Y-69749999D02*
X150000000Y-69749999D01*
X0Y-56000000D02*
X0Y-70336420D01*
X150000000Y-56000000D02*
X150000000Y-70336420D01*
X150000000Y-69749999D02*
X148873496Y-70336420D01*
X150000000Y-69749999D02*
X148873496Y-69163578D01*
X0Y-69749999D02*
X1126504Y-70336420D01*
X0Y-69749999D02*
X1126504Y-69163578D01*
D10*
X-7972380Y-26333333D02*
X-7972380Y-26142857D01*
X-8019999Y-26047619D01*
X-8067619Y-26000000D01*
X-8210476Y-25904761D01*
X-8400952Y-25857142D01*
X-8781904Y-25857142D01*
X-8877142Y-25904761D01*
X-8924761Y-25952380D01*
X-8972380Y-26047619D01*
X-8972380Y-26238095D01*
X-8924761Y-26333333D01*
X-8877142Y-26380952D01*
X-8781904Y-26428571D01*
X-8543809Y-26428571D01*
X-8448571Y-26380952D01*
X-8400952Y-26333333D01*
X-8353333Y-26238095D01*
X-8353333Y-26047619D01*
X-8400952Y-25952380D01*
X-8448571Y-25904761D01*
X-8543809Y-25857142D01*
X-7972380Y-27047619D02*
X-7972380Y-27142857D01*
X-8019999Y-27238095D01*
X-8067619Y-27285714D01*
X-8162857Y-27333333D01*
X-8353333Y-27380952D01*
X-8591428Y-27380952D01*
X-8781904Y-27333333D01*
X-8877142Y-27285714D01*
X-8924761Y-27238095D01*
X-8972380Y-27142857D01*
X-8972380Y-27047619D01*
X-8924761Y-26952380D01*
X-8877142Y-26904761D01*
X-8781904Y-26857142D01*
X-8591428Y-26809523D01*
X-8353333Y-26809523D01*
X-8162857Y-26857142D01*
X-8067619Y-26904761D01*
X-8019999Y-26952380D01*
X-7972380Y-27047619D01*
X-8877142Y-27809523D02*
X-8924761Y-27857142D01*
X-8972380Y-27809523D01*
X-8924761Y-27761904D01*
X-8877142Y-27809523D01*
X-8972380Y-27809523D01*
X-7972380Y-28476190D02*
X-7972380Y-28571428D01*
X-8019999Y-28666666D01*
X-8067619Y-28714285D01*
X-8162857Y-28761904D01*
X-8353333Y-28809523D01*
X-8591428Y-28809523D01*
X-8781904Y-28761904D01*
X-8877142Y-28714285D01*
X-8924761Y-28666666D01*
X-8972380Y-28571428D01*
X-8972380Y-28476190D01*
X-8924761Y-28380952D01*
X-8877142Y-28333333D01*
X-8781904Y-28285714D01*
X-8591428Y-28238095D01*
X-8353333Y-28238095D01*
X-8162857Y-28285714D01*
X-8067619Y-28333333D01*
X-8019999Y-28380952D01*
X-7972380Y-28476190D01*
X-7972380Y-29428571D02*
X-7972380Y-29523809D01*
X-8019999Y-29619047D01*
X-8067619Y-29666666D01*
X-8162857Y-29714285D01*
X-8353333Y-29761904D01*
X-8591428Y-29761904D01*
X-8781904Y-29714285D01*
X-8877142Y-29666666D01*
X-8924761Y-29619047D01*
X-8972380Y-29523809D01*
X-8972380Y-29428571D01*
X-8924761Y-29333333D01*
X-8877142Y-29285714D01*
X-8781904Y-29238095D01*
X-8591428Y-29190476D01*
X-8353333Y-29190476D01*
X-8162857Y-29238095D01*
X-8067619Y-29285714D01*
X-8019999Y-29333333D01*
X-7972380Y-29428571D01*
X-7972380Y-30380952D02*
X-7972380Y-30476190D01*
X-8019999Y-30571428D01*
X-8067619Y-30619047D01*
X-8162857Y-30666666D01*
X-8353333Y-30714285D01*
X-8591428Y-30714285D01*
X-8781904Y-30666666D01*
X-8877142Y-30619047D01*
X-8924761Y-30571428D01*
X-8972380Y-30476190D01*
X-8972380Y-30380952D01*
X-8924761Y-30285714D01*
X-8877142Y-30238095D01*
X-8781904Y-30190476D01*
X-8591428Y-30142857D01*
X-8353333Y-30142857D01*
X-8162857Y-30190476D01*
X-8067619Y-30238095D01*
X-8019999Y-30285714D01*
X-7972380Y-30380952D01*
X-8972380Y-31904761D02*
X-8305714Y-31904761D01*
X-8400952Y-31904761D02*
X-8353333Y-31952380D01*
X-8305714Y-32047619D01*
X-8305714Y-32190476D01*
X-8353333Y-32285714D01*
X-8448571Y-32333333D01*
X-8972380Y-32333333D01*
X-8448571Y-32333333D02*
X-8353333Y-32380952D01*
X-8305714Y-32476190D01*
X-8305714Y-32619047D01*
X-8353333Y-32714285D01*
X-8448571Y-32761904D01*
X-8972380Y-32761904D01*
X-8972380Y-33238095D02*
X-8305714Y-33238095D01*
X-8400952Y-33238095D02*
X-8353333Y-33285714D01*
X-8305714Y-33380952D01*
X-8305714Y-33523809D01*
X-8353333Y-33619047D01*
X-8448571Y-33666666D01*
X-8972380Y-33666666D01*
X-8448571Y-33666666D02*
X-8353333Y-33714285D01*
X-8305714Y-33809523D01*
X-8305714Y-33952380D01*
X-8353333Y-34047619D01*
X-8448571Y-34095238D01*
X-8972380Y-34095238D01*
D11*
X-7249999Y0D02*
X-7249999Y-60000000D01*
X8750000Y0D02*
X-7836420Y0D01*
X8750000Y-60000000D02*
X-7836420Y-60000000D01*
X-7249999Y-60000000D02*
X-7836420Y-58873496D01*
X-7249999Y-60000000D02*
X-6663578Y-58873496D01*
X-7249999Y0D02*
X-7836420Y-1126504D01*
X-7249999Y0D02*
X-6663578Y-1126504D01*
X77000000Y-57000000D02*
G75*
G03X77000000Y-57000000I-4000000J0D01*
G01*
X77000000Y-3000000D02*
G75*
G03X77000000Y-3000000I-4000000J0D01*
G01*
X151000000Y-3000000D02*
G75*
G03X151000000Y-3000000I-4000000J0D01*
G01*
X151000000Y-57000000D02*
G75*
G03X151000000Y-57000000I-4000000J0D01*
G01*
X7000000Y-57000000D02*
G75*
G03X7000000Y-57000000I-4000000J0D01*
G01*
X7000000Y-3000000D02*
G75*
G03X7000000Y-3000000I-4000000J0D01*
G01*
D12*
X28900000Y-23650000D02*
X28900000Y-49250000D01*
X28900000Y-49250000D02*
X35700000Y-49250000D01*
X35700000Y-49250000D02*
X35700000Y-23650000D01*
X35700000Y-23650000D02*
X28900000Y-23650000D01*
X28900000Y-23650000D02*
X35700000Y-30450000D01*
X28900000Y-25650000D02*
X35700000Y-32450000D01*
X28900000Y-27650000D02*
X35700000Y-34450000D01*
X28900000Y-29650000D02*
X35700000Y-36450000D01*
X28900000Y-31650000D02*
X35700000Y-38450000D01*
X28900000Y-33650000D02*
X35700000Y-40450000D01*
X28900000Y-35650000D02*
X35700000Y-42450000D01*
X28900000Y-37650000D02*
X35700000Y-44450000D01*
X28900000Y-39650000D02*
X35700000Y-46450000D01*
X28900000Y-41650000D02*
X35700000Y-48450000D01*
X28900000Y-43650000D02*
X34500000Y-49250000D01*
X28900000Y-45650000D02*
X32500000Y-49250000D01*
X28900000Y-47650000D02*
X30500000Y-49250000D01*
X30900000Y-23650000D02*
X35700000Y-28450000D01*
X32950000Y-23700000D02*
X35700000Y-26450000D01*
X34900000Y-23650000D02*
X35700000Y-24450000D01*
X19600000Y-22500000D02*
G75*
G03X19600000Y-22500000I0J0D01*
G01*
X19600000Y-22500000D02*
G75*
G03X19600000Y-22500000I0J0D01*
G01*
X19600000Y-22500000D02*
G75*
G03X19600000Y-22500000I0J0D01*
G01*
X19600000Y-22500000D02*
G75*
G03X19600000Y-22500000I0J0D01*
G01*
X19600000Y-22500000D02*
G75*
G03X19600000Y-22500000I0J0D01*
G01*
X19600000Y-22500000D02*
G75*
G03X19600000Y-22500000I0J0D01*
G01*
X19600000Y-22500000D02*
X19600000Y-22500000D01*
X19600000Y-22500000D02*
X19600000Y-22500000D01*
X19600000Y-22500000D02*
X19600000Y-22500000D01*
X19600000Y-22500000D02*
X19600000Y-22500000D01*
D13*
G36*
X14670000Y-43800000D02*
G01*
X14670000Y-33600000D01*
X10620000Y-33600000D01*
X10620000Y-43800000D01*
X14670000Y-43800000D01*
G37*
X14670000Y-43800000D02*
X14670000Y-33600000D01*
X10620000Y-33600000D01*
X10620000Y-43800000D01*
X14670000Y-43800000D01*
G36*
X14670000Y-43800000D02*
G01*
X14670000Y-33600000D01*
X10620000Y-33600000D01*
X10620000Y-43800000D01*
X14670000Y-43800000D01*
G37*
X14670000Y-43800000D02*
X14670000Y-33600000D01*
X10620000Y-33600000D01*
X10620000Y-43800000D01*
X14670000Y-43800000D01*
D11*
X19500000Y-36400000D02*
X-500000Y-36400000D01*
X7150000Y-26850000D02*
X7150000Y-47050000D01*
D10*
X2380Y-54497619D02*
X-664286Y-54497619D01*
X-473810Y-54497619D02*
X-569048Y-54450000D01*
X-616667Y-54402380D01*
X-664286Y-54307142D01*
X-664286Y-54211904D01*
X-45239Y-53497619D02*
X2380Y-53592857D01*
X2380Y-53783333D01*
X-45239Y-53878571D01*
X-140477Y-53926190D01*
X-521429Y-53926190D01*
X-616667Y-53878571D01*
X-664286Y-53783333D01*
X-664286Y-53592857D01*
X-616667Y-53497619D01*
X-521429Y-53450000D01*
X-426191Y-53450000D01*
X-330953Y-53926190D01*
X-664286Y-53164285D02*
X-664286Y-52783333D01*
X2380Y-53021428D02*
X-854762Y-53021428D01*
X-950000Y-52973809D01*
X-997620Y-52878571D01*
X-997620Y-52783333D01*
X-378572Y-51688095D02*
X-378572Y-50926190D01*
X2380Y-49688095D02*
X-997620Y-49688095D01*
X2380Y-49259523D02*
X-521429Y-49259523D01*
X-616667Y-49307142D01*
X-664286Y-49402380D01*
X-664286Y-49545238D01*
X-616667Y-49640476D01*
X-569048Y-49688095D01*
X-664286Y-48926190D02*
X-664286Y-48545238D01*
X-997620Y-48783333D02*
X-140477Y-48783333D01*
X-45239Y-48735714D01*
X2380Y-48640476D01*
X2380Y-48545238D01*
X-664286Y-48354761D02*
X-664286Y-47973809D01*
X-997620Y-48211904D02*
X-140477Y-48211904D01*
X-45239Y-48164285D01*
X2380Y-48069047D01*
X2380Y-47973809D01*
X-664286Y-47640476D02*
X335714Y-47640476D01*
X-616667Y-47640476D02*
X-664286Y-47545238D01*
X-664286Y-47354761D01*
X-616667Y-47259523D01*
X-569048Y-47211904D01*
X-473810Y-47164285D01*
X-188096Y-47164285D01*
X-92858Y-47211904D01*
X-45239Y-47259523D01*
X2380Y-47354761D01*
X2380Y-47545238D01*
X-45239Y-47640476D01*
X-45239Y-46783333D02*
X2380Y-46688095D01*
X2380Y-46497619D01*
X-45239Y-46402380D01*
X-140477Y-46354761D01*
X-188096Y-46354761D01*
X-283334Y-46402380D01*
X-330953Y-46497619D01*
X-330953Y-46640476D01*
X-378572Y-46735714D01*
X-473810Y-46783333D01*
X-521429Y-46783333D01*
X-616667Y-46735714D01*
X-664286Y-46640476D01*
X-664286Y-46497619D01*
X-616667Y-46402380D01*
X-92858Y-45926190D02*
X-45239Y-45878571D01*
X2380Y-45926190D01*
X-45239Y-45973809D01*
X-92858Y-45926190D01*
X2380Y-45926190D01*
X-616667Y-45926190D02*
X-569048Y-45878571D01*
X-521429Y-45926190D01*
X-569048Y-45973809D01*
X-616667Y-45926190D01*
X-521429Y-45926190D01*
X-1045239Y-44735714D02*
X240476Y-45592857D01*
X-1045239Y-43688095D02*
X240476Y-44545238D01*
X-664286Y-43450000D02*
X2380Y-43259523D01*
X-473810Y-43069047D01*
X2380Y-42878571D01*
X-664286Y-42688095D01*
X-664286Y-42402380D02*
X2380Y-42211904D01*
X-473810Y-42021428D01*
X2380Y-41830952D01*
X-664286Y-41640476D01*
X-664286Y-41354761D02*
X2380Y-41164285D01*
X-473810Y-40973809D01*
X2380Y-40783333D01*
X-664286Y-40592857D01*
X-92858Y-40211904D02*
X-45239Y-40164285D01*
X2380Y-40211904D01*
X-45239Y-40259523D01*
X-92858Y-40211904D01*
X2380Y-40211904D01*
X-45239Y-39783333D02*
X2380Y-39688095D01*
X2380Y-39497619D01*
X-45239Y-39402380D01*
X-140477Y-39354761D01*
X-188096Y-39354761D01*
X-283334Y-39402380D01*
X-330953Y-39497619D01*
X-330953Y-39640476D01*
X-378572Y-39735714D01*
X-473810Y-39783333D01*
X-521429Y-39783333D01*
X-616667Y-39735714D01*
X-664286Y-39640476D01*
X-664286Y-39497619D01*
X-616667Y-39402380D01*
X-664286Y-38497619D02*
X2380Y-38497619D01*
X-664286Y-38926190D02*
X-140477Y-38926190D01*
X-45239Y-38878571D01*
X2380Y-38783333D01*
X2380Y-38640476D01*
X-45239Y-38545238D01*
X-92858Y-38497619D01*
X-664286Y-38021428D02*
X2380Y-38021428D01*
X-569048Y-38021428D02*
X-616667Y-37973809D01*
X-664286Y-37878571D01*
X-664286Y-37735714D01*
X-616667Y-37640476D01*
X-521429Y-37592857D01*
X2380Y-37592857D01*
X2380Y-37116666D02*
X-664286Y-37116666D01*
X-473810Y-37116666D02*
X-569048Y-37069047D01*
X-616667Y-37021428D01*
X-664286Y-36926190D01*
X-664286Y-36830952D01*
X2380Y-36354761D02*
X-45239Y-36450000D01*
X-92858Y-36497619D01*
X-188096Y-36545238D01*
X-473810Y-36545238D01*
X-569048Y-36497619D01*
X-616667Y-36450000D01*
X-664286Y-36354761D01*
X-664286Y-36211904D01*
X-616667Y-36116666D01*
X-569048Y-36069047D01*
X-473810Y-36021428D01*
X-188096Y-36021428D01*
X-92858Y-36069047D01*
X-45239Y-36116666D01*
X2380Y-36211904D01*
X2380Y-36354761D01*
X2380Y-35592857D02*
X-664286Y-35592857D01*
X-569048Y-35592857D02*
X-616667Y-35545238D01*
X-664286Y-35450000D01*
X-664286Y-35307142D01*
X-616667Y-35211904D01*
X-521429Y-35164285D01*
X2380Y-35164285D01*
X-521429Y-35164285D02*
X-616667Y-35116666D01*
X-664286Y-35021428D01*
X-664286Y-34878571D01*
X-616667Y-34783333D01*
X-521429Y-34735714D01*
X2380Y-34735714D01*
X-92858Y-34259523D02*
X-45239Y-34211904D01*
X2380Y-34259523D01*
X-45239Y-34307142D01*
X-92858Y-34259523D01*
X2380Y-34259523D01*
X-45239Y-33354761D02*
X2380Y-33450000D01*
X2380Y-33640476D01*
X-45239Y-33735714D01*
X-92858Y-33783333D01*
X-188096Y-33830952D01*
X-473810Y-33830952D01*
X-569048Y-33783333D01*
X-616667Y-33735714D01*
X-664286Y-33640476D01*
X-664286Y-33450000D01*
X-616667Y-33354761D01*
X2380Y-32783333D02*
X-45239Y-32878571D01*
X-92858Y-32926190D01*
X-188096Y-32973809D01*
X-473810Y-32973809D01*
X-569048Y-32926190D01*
X-616667Y-32878571D01*
X-664286Y-32783333D01*
X-664286Y-32640476D01*
X-616667Y-32545238D01*
X-569048Y-32497619D01*
X-473810Y-32450000D01*
X-188096Y-32450000D01*
X-92858Y-32497619D01*
X-45239Y-32545238D01*
X2380Y-32640476D01*
X2380Y-32783333D01*
X2380Y-32021428D02*
X-664286Y-32021428D01*
X-569048Y-32021428D02*
X-616667Y-31973809D01*
X-664286Y-31878571D01*
X-664286Y-31735714D01*
X-616667Y-31640476D01*
X-521429Y-31592857D01*
X2380Y-31592857D01*
X-521429Y-31592857D02*
X-616667Y-31545238D01*
X-664286Y-31450000D01*
X-664286Y-31307142D01*
X-616667Y-31211904D01*
X-521429Y-31164285D01*
X2380Y-31164285D01*
X-1045239Y-29973809D02*
X240476Y-30830952D01*
X-664286Y-29640476D02*
X335714Y-29640476D01*
X-616667Y-29640476D02*
X-664286Y-29545238D01*
X-664286Y-29354761D01*
X-616667Y-29259523D01*
X-569048Y-29211904D01*
X-473810Y-29164285D01*
X-188096Y-29164285D01*
X-92858Y-29211904D01*
X-45239Y-29259523D01*
X2380Y-29354761D01*
X2380Y-29545238D01*
X-45239Y-29640476D01*
X-1045239Y-28021428D02*
X240476Y-28878571D01*
X2380Y-27688095D02*
X-664286Y-27688095D01*
X-569048Y-27688095D02*
X-616667Y-27640476D01*
X-664286Y-27545238D01*
X-664286Y-27402380D01*
X-616667Y-27307142D01*
X-521429Y-27259523D01*
X2380Y-27259523D01*
X-521429Y-27259523D02*
X-616667Y-27211904D01*
X-664286Y-27116666D01*
X-664286Y-26973809D01*
X-616667Y-26878571D01*
X-521429Y-26830952D01*
X2380Y-26830952D01*
X2380Y-26354761D02*
X-664286Y-26354761D01*
X-997620Y-26354761D02*
X-950000Y-26402380D01*
X-902381Y-26354761D01*
X-950000Y-26307142D01*
X-997620Y-26354761D01*
X-902381Y-26354761D01*
X-45239Y-25450000D02*
X2380Y-25545238D01*
X2380Y-25735714D01*
X-45239Y-25830952D01*
X-92858Y-25878571D01*
X-188096Y-25926190D01*
X-473810Y-25926190D01*
X-569048Y-25878571D01*
X-616667Y-25830952D01*
X-664286Y-25735714D01*
X-664286Y-25545238D01*
X-616667Y-25450000D01*
X2380Y-25021428D02*
X-664286Y-25021428D01*
X-473810Y-25021428D02*
X-569048Y-24973809D01*
X-616667Y-24926190D01*
X-664286Y-24830952D01*
X-664286Y-24735714D01*
X2380Y-24259523D02*
X-45239Y-24354761D01*
X-92858Y-24402380D01*
X-188096Y-24450000D01*
X-473810Y-24450000D01*
X-569048Y-24402380D01*
X-616667Y-24354761D01*
X-664286Y-24259523D01*
X-664286Y-24116666D01*
X-616667Y-24021428D01*
X-569048Y-23973809D01*
X-473810Y-23926190D01*
X-188096Y-23926190D01*
X-92858Y-23973809D01*
X-45239Y-24021428D01*
X2380Y-24116666D01*
X2380Y-24259523D01*
X-378572Y-23497619D02*
X-378572Y-22735714D01*
X-45239Y-22307142D02*
X2380Y-22211904D01*
X2380Y-22021428D01*
X-45239Y-21926190D01*
X-140477Y-21878571D01*
X-188096Y-21878571D01*
X-283334Y-21926190D01*
X-330953Y-22021428D01*
X-330953Y-22164285D01*
X-378572Y-22259523D01*
X-473810Y-22307142D01*
X-521429Y-22307142D01*
X-616667Y-22259523D01*
X-664286Y-22164285D01*
X-664286Y-22021428D01*
X-616667Y-21926190D01*
X2380Y-21021428D02*
X-997620Y-21021428D01*
X-45239Y-21021428D02*
X2380Y-21116666D01*
X2380Y-21307142D01*
X-45239Y-21402380D01*
X-92858Y-21450000D01*
X-188096Y-21497619D01*
X-473810Y-21497619D01*
X-569048Y-21450000D01*
X-616667Y-21402380D01*
X-664286Y-21307142D01*
X-664286Y-21116666D01*
X-616667Y-21021428D01*
X-378572Y-20545238D02*
X-378572Y-19783333D01*
X2380Y-19307142D02*
X-664286Y-19307142D01*
X-569048Y-19307142D02*
X-616667Y-19259523D01*
X-664286Y-19164285D01*
X-664286Y-19021428D01*
X-616667Y-18926190D01*
X-521429Y-18878571D01*
X2380Y-18878571D01*
X-521429Y-18878571D02*
X-616667Y-18830952D01*
X-664286Y-18735714D01*
X-664286Y-18592857D01*
X-616667Y-18497619D01*
X-521429Y-18450000D01*
X2380Y-18450000D01*
X-45239Y-17592857D02*
X2380Y-17688095D01*
X2380Y-17878571D01*
X-45239Y-17973809D01*
X-140477Y-18021428D01*
X-521429Y-18021428D01*
X-616667Y-17973809D01*
X-664286Y-17878571D01*
X-664286Y-17688095D01*
X-616667Y-17592857D01*
X-521429Y-17545238D01*
X-426191Y-17545238D01*
X-330953Y-18021428D01*
X2380Y-17116666D02*
X-664286Y-17116666D01*
X-569048Y-17116666D02*
X-616667Y-17069047D01*
X-664286Y-16973809D01*
X-664286Y-16830952D01*
X-616667Y-16735714D01*
X-521429Y-16688095D01*
X2380Y-16688095D01*
X-521429Y-16688095D02*
X-616667Y-16640476D01*
X-664286Y-16545238D01*
X-664286Y-16402380D01*
X-616667Y-16307142D01*
X-521429Y-16259523D01*
X2380Y-16259523D01*
X2380Y-15640476D02*
X-45239Y-15735714D01*
X-92858Y-15783333D01*
X-188096Y-15830952D01*
X-473810Y-15830952D01*
X-569048Y-15783333D01*
X-616667Y-15735714D01*
X-664286Y-15640476D01*
X-664286Y-15497619D01*
X-616667Y-15402380D01*
X-569048Y-15354761D01*
X-473810Y-15307142D01*
X-188096Y-15307142D01*
X-92858Y-15354761D01*
X-45239Y-15402380D01*
X2380Y-15497619D01*
X2380Y-15640476D01*
X2380Y-14878571D02*
X-664286Y-14878571D01*
X-473810Y-14878571D02*
X-569048Y-14830952D01*
X-616667Y-14783333D01*
X-664286Y-14688095D01*
X-664286Y-14592857D01*
X-664286Y-14354761D02*
X2380Y-14116666D01*
X-664286Y-13878571D02*
X2380Y-14116666D01*
X240476Y-14211904D01*
X288095Y-14259523D01*
X335714Y-14354761D01*
X-378572Y-13497619D02*
X-378572Y-12735714D01*
X-45239Y-11830952D02*
X2380Y-11926190D01*
X2380Y-12116666D01*
X-45239Y-12211904D01*
X-92858Y-12259523D01*
X-188096Y-12307142D01*
X-473810Y-12307142D01*
X-569048Y-12259523D01*
X-616667Y-12211904D01*
X-664286Y-12116666D01*
X-664286Y-11926190D01*
X-616667Y-11830952D01*
X2380Y-10973809D02*
X-521429Y-10973809D01*
X-616667Y-11021428D01*
X-664286Y-11116666D01*
X-664286Y-11307142D01*
X-616667Y-11402380D01*
X-45239Y-10973809D02*
X2380Y-11069047D01*
X2380Y-11307142D01*
X-45239Y-11402380D01*
X-140477Y-11450000D01*
X-235715Y-11450000D01*
X-330953Y-11402380D01*
X-378572Y-11307142D01*
X-378572Y-11069047D01*
X-426191Y-10973809D01*
X2380Y-10497619D02*
X-664286Y-10497619D01*
X-473810Y-10497619D02*
X-569048Y-10450000D01*
X-616667Y-10402380D01*
X-664286Y-10307142D01*
X-664286Y-10211904D01*
X2380Y-9450000D02*
X-997620Y-9450000D01*
X-45239Y-9450000D02*
X2380Y-9545238D01*
X2380Y-9735714D01*
X-45239Y-9830952D01*
X-92858Y-9878571D01*
X-188096Y-9926190D01*
X-473810Y-9926190D01*
X-569048Y-9878571D01*
X-616667Y-9830952D01*
X-664286Y-9735714D01*
X-664286Y-9545238D01*
X-616667Y-9450000D01*
X-378572Y-8973809D02*
X-378572Y-8211904D01*
X-45239Y-7783333D02*
X2380Y-7688095D01*
X2380Y-7497619D01*
X-45239Y-7402380D01*
X-140477Y-7354761D01*
X-188096Y-7354761D01*
X-283334Y-7402380D01*
X-330953Y-7497619D01*
X-330953Y-7640476D01*
X-378572Y-7735714D01*
X-473810Y-7783333D01*
X-521429Y-7783333D01*
X-616667Y-7735714D01*
X-664286Y-7640476D01*
X-664286Y-7497619D01*
X-616667Y-7402380D01*
X2380Y-6783333D02*
X-45239Y-6878571D01*
X-92858Y-6926190D01*
X-188096Y-6973809D01*
X-473810Y-6973809D01*
X-569048Y-6926190D01*
X-616667Y-6878571D01*
X-664286Y-6783333D01*
X-664286Y-6640476D01*
X-616667Y-6545238D01*
X-569048Y-6497619D01*
X-473810Y-6450000D01*
X-188096Y-6450000D01*
X-92858Y-6497619D01*
X-45239Y-6545238D01*
X2380Y-6640476D01*
X2380Y-6783333D01*
X-45239Y-5592857D02*
X2380Y-5688095D01*
X2380Y-5878571D01*
X-45239Y-5973809D01*
X-92858Y-6021428D01*
X-188096Y-6069047D01*
X-473810Y-6069047D01*
X-569048Y-6021428D01*
X-616667Y-5973809D01*
X-664286Y-5878571D01*
X-664286Y-5688095D01*
X-616667Y-5592857D01*
X2380Y-5164285D02*
X-997620Y-5164285D01*
X-378572Y-5069047D02*
X2380Y-4783333D01*
X-664286Y-4783333D02*
X-283334Y-5164285D01*
X-45239Y-3973809D02*
X2380Y-4069047D01*
X2380Y-4259523D01*
X-45239Y-4354761D01*
X-140477Y-4402380D01*
X-521429Y-4402380D01*
X-616667Y-4354761D01*
X-664286Y-4259523D01*
X-664286Y-4069047D01*
X-616667Y-3973809D01*
X-521429Y-3926190D01*
X-426191Y-3926190D01*
X-330953Y-4402380D01*
X-664286Y-3640476D02*
X-664286Y-3259523D01*
X-997620Y-3497619D02*
X-140477Y-3497619D01*
X-45239Y-3450000D01*
X2380Y-3354761D01*
X2380Y-3259523D01*
M02*
